Alguns graficos de correlação
…
Tabelas (Lembrar de fazer com e sem os valores desconhecidos, pq eles
sao os maiores), e também adicionar mais informacoes na tabela fora o
numero de voos, o que botar?

#Operadores por Sigla
table_opid <- def_strikes %>%
  group_by(OPID) %>%
  summarize(
    Voos = n())  %>%
  arrange(desc(Voos))
print(table_opid)

## # A tibble: 607 × 2
##    OPID   Voos
##    <chr> <int>
##  1 UNK   81287
##  2 BUS   24493
##  3 SWA   24200
##  4 AAL   20481
##  5 UAL   17603
##  6 DAL   13109
##  7 FDX    9602
##  8 SKW    6778
##  9 UPS    6377
## 10 JBU    4983
## # ℹ 597 more rows

#Operador sem ser sigla
table_operadores <- def_strikes %>%
  group_by(OPERATOR) %>%
  summarize(
    Voos = n())  %>%
  arrange(desc(Voos))
print(table_operadores)

## # A tibble: 602 × 2
##    OPERATOR            Voos
##    <chr>              <int>
##  1 UNKNOWN            81307
##  2 BUSINESS           24493
##  3 SOUTHWEST AIRLINES 24201
##  4 AMERICAN AIRLINES  20481
##  5 UNITED AIRLINES    17603
##  6 DELTA AIR LINES    13110
##  7 FEDEX EXPRESS       9602
##  8 SKYWEST AIRLINES    6778
##  9 UPS AIRLINES        6377
## 10 JETBLUE AIRWAYS     4983
## # ℹ 592 more rows

#OPERADORES SEM SIGLAS E SEM OS DESCONHECIDOS
table_operadoresfiltrado <- def_strikes %>%
  filter(OPERATOR != "UNKNOWN") %>%
  group_by(OPERATOR) %>%
  summarize(
    Voos = n())  %>%
  arrange(desc(Voos))
print(table_operadoresfiltrado)

## # A tibble: 601 × 2
##    OPERATOR            Voos
##    <chr>              <int>
##  1 BUSINESS           24493
##  2 SOUTHWEST AIRLINES 24201
##  3 AMERICAN AIRLINES  20481
##  4 UNITED AIRLINES    17603
##  5 DELTA AIR LINES    13110
##  6 FEDEX EXPRESS       9602
##  7 SKYWEST AIRLINES    6778
##  8 UPS AIRLINES        6377
##  9 JETBLUE AIRWAYS     4983
## 10 1US AIRWAYS         3961
## # ℹ 591 more rows

#Aeroportos com mais voos que tiveram impact
table_aeroportos <- def_strikes %>%
  group_by(AIRPORT) %>%
  summarize(
    Voos = n()) %>%
  arrange(desc(Voos))
print(table_aeroportos)

## # A tibble: 2,615 × 2
##    AIRPORT                          Voos
##    <chr>                           <int>
##  1 UNKNOWN                         35418
##  2 DENVER INTL AIRPORT              9620
##  3 DALLAS/FORT WORTH INTL ARPT      7759
##  4 CHICAGO O'HARE INTL ARPT         6239
##  5 JOHN F KENNEDY INTL              5984
##  6 MEMPHIS INTL                     4813
##  7 SALT LAKE CITY INTL              3722
##  8 SACRAMENTO INTL                  3608
##  9 DETROIT METRO WAYNE COUNTY ARPT  3600
## 10 ORLANDO INTL                     3589
## # ℹ 2,605 more rows

#Aeroportos com mais voos que tiveram impactO SEM UNKNOWN
table_aeroportosFILTRADO <- def_strikes %>%
  filter(AIRPORT != "UNKNOWN") %>%
  group_by(AIRPORT) %>%
  summarize(
    Voos = n()) %>%
  arrange(desc(Voos))
print(table_aeroportosFILTRADO)

## # A tibble: 2,614 × 2
##    AIRPORT                                 Voos
##    <chr>                                  <int>
##  1 DENVER INTL AIRPORT                     9620
##  2 DALLAS/FORT WORTH INTL ARPT             7759
##  3 CHICAGO O'HARE INTL ARPT                6239
##  4 JOHN F KENNEDY INTL                     5984
##  5 MEMPHIS INTL                            4813
##  6 SALT LAKE CITY INTL                     3722
##  7 SACRAMENTO INTL                         3608
##  8 DETROIT METRO WAYNE COUNTY ARPT         3600
##  9 ORLANDO INTL                            3589
## 10 HARTSFIELD - JACKSON ATLANTA INTL ARPT  3529
## # ℹ 2,604 more rows

#Os avioes que mais tem impcato sao os comerciais grandes, fazer alguma analise de correlação com o dano, porque acho que eles nao tem muitos danos
table_aircrafts <- def_strikes %>%
  group_by(AIRCRAFT)%>%
  summarize(
    Voos = n()) %>%
  arrange(desc(Voos))
print(table_aircrafts)

## # A tibble: 603 × 2
##    AIRCRAFT    Voos
##    <chr>      <int>
##  1 UNKNOWN    81535
##  2 B-737-700  14287
##  3 A-320      13993
##  4 B-737-800  11100
##  5 CRJ100/200  9503
##  6 B-737-300   9337
##  7 A-319       8617
##  8 B-757-200   8219
##  9 EMB-170     7572
## 10 EMB-145     5985
## # ℹ 593 more rows

table_aircraftsFILTRADO <- def_strikes %>%
  filter(AIRCRAFT != "UNKNOWN") %>%
  group_by(AIRCRAFT)%>%
  summarize(
    Voos = n()) %>%
  arrange(desc(Voos))
print(table_aircraftsFILTRADO)

## # A tibble: 602 × 2
##    AIRCRAFT    Voos
##    <chr>      <int>
##  1 B-737-700  14287
##  2 A-320      13993
##  3 B-737-800  11100
##  4 CRJ100/200  9503
##  5 B-737-300   9337
##  6 A-319       8617
##  7 B-757-200   8219
##  8 EMB-170     7572
##  9 EMB-145     5985
## 10 A-321       5348
## # ℹ 592 more rows

#Estados com mais Impactos
table_ESTADO <- def_strikes %>%
  group_by(STATE) %>%
  summarize(
    Voos = n()) %>%
  arrange(desc(Voos))
print(table_ESTADO)

## # A tibble: 68 × 2
##    STATE  Voos
##    <chr> <int>
##  1 ""    35501
##  2 "TX"  24794
##  3 "FL"  20616
##  4 "CA"  20431
##  5 "NY"  14371
##  6 "CO"  12420
##  7 "IL"  11942
##  8 "TN"   8503
##  9 "PA"   8190
## 10 "OH"   8133
## # ℹ 58 more rows

table_ESTADOFILTRADO <- def_strikes %>%
  filter(STATE != "") %>%
  group_by(STATE) %>%
  summarize(
    Voos = n()) %>%
  arrange(desc(Voos))
print(table_ESTADOFILTRADO)

## # A tibble: 67 × 2
##    STATE  Voos
##    <chr> <int>
##  1 TX    24794
##  2 FL    20616
##  3 CA    20431
##  4 NY    14371
##  5 CO    12420
##  6 IL    11942
##  7 TN     8503
##  8 PA     8190
##  9 OH     8133
## 10 NJ     7282
## # ℹ 57 more rows
…
